aruco_ros2/src/marker_publish.cpp:106:5: style: Class 'ArucoMarkerPublisher' has a constructor with 1 argument that is not explicit. [noExplicitConstructor]
    ArucoMarkerPublisher(rclcpp::NodeOptions options) :
    ^
aruco_ros2/src/simple_double.cpp:272:41: style: Variable 'image_sub' is assigned a value that is never used. [unreadVariable]
  image_transport::Subscriber image_sub = image_transport::create_subscription(node.get(), "/image",&image_callback,"raw");
                                        ^
aruco_ros2/src/simple_single.cpp:100:3: style: Class 'ArucoSimple' has a constructor with 1 argument that is not explicit. [noExplicitConstructor]
  ArucoSimple(rclcpp::NodeOptions options) :
  ^
nofile:0:0: information: Cppcheck cannot find all the include files (use --check-config for details) [missingInclude]

